4.2_lab_data.csv

#Digilent WaveForms Oscilloscope Acquisition
#Device Name: DiscoveryStudio
#Serial Number: SN:210384AC9618
#Date Time: 2025-07-01 14:57:56.089
#Sample rate: 80000Hz
#Samples: 8192
#Trigger: Source: Wavegen C1 Condition: Rising
#Channel 1: Range: 500 mV/div Offset: 0 V Sample Mode: Average
#Channel 2: Range: 500 mV/div Offset: -100 mV Sample Mode: Average
#Wavegen Channel 1: Enabled
#Mode: Simple
#Type: RampUp
#Frequency: 9.8 Hz
#Period: 102.0408163 ms
#Amplitude: 1.75 V
#Offset: 1.25 V
#Symmetry: 100 %
#Phase: 0 °

Time (s),Channel 1 (V),Channel 2 (V)
-0.0012,2.190871598223373,0.652454396337079
-0.001187499999999994,2.191209980673929,0.6527912140708956
-0.001174999999999995,2.191886745575039,0.6527912140708956
-0.001162499999999997,2.191886745575039,0.6527912140708956
-0.001149999999999998,2.192225128025594,0.652454396337079
-0.0011375,2.19324027537726,0.6527912140708956
-0.001124999999999994,2.193917040278371,0.6527912140708956
-0.001112499999999995,2.193917040278371,0.6527912140708956
-0.001099999999999997,2.194255422728926,0.652454396337079
-0.001087499999999998,2.194255422728926,0.6527912140708956
-0.001075,2.195270570080592,0.6527912140708956
-0.001062499999999994,2.195608952531148,0.6527912140708956
-0.001049999999999995,2.196285717432258,0.6527912140708956
-0.001037499999999997,2.196624099882813,0.6527912140708956
-0.001024999999999998,2.196962482333369,0.6527912140708956
-0.0010125,2.197639247234479,0.6527912140708956
-0.0009999999999999939,2.19831601213559,0.6527912140708956
-0.0009874999999999953,2.198654394586145,0.6527912140708956
-0.0009749999999999967,2.197977629685035,0.6527912140708956
-0.0009624999999999981,2.19831601213559,0.6527912140708956
-0.0009499999999999995,2.198654394586145,0.6531280318047119
-0.0009374999999999939,2.198992777036701,0.6527912140708956
-0.0009249999999999953,2.199331159487256,0.6527912140708956
-0.0009124999999999966,2.200684689289477,0.6527912140708956
-0.000899999999999998,2.200684689289477,0.6527912140708956
-0.0008874999999999994,2.201023071740033,0.6527912140708956
-0.0008749999999999938,2.201361454190588,0.6527912140708956
-0.0008624999999999952,2.201699836641143,0.6527912140708956
-0.0008499999999999966,2.202714983992809,0.6527912140708956
-0.000837499999999998,2.202714983992809,0.6527912140708956
-0.0008249999999999993,2.20339174889392,0.6527912140708956
-0.0008124999999999938,2.20339174889392,0.6527912140708956
-0.0007999999999999952,2.204406896245586,0.6527912140708956
-0.0007874999999999965,2.204406896245586,0.6531280318047119
-0.0007749999999999979,2.205083661146697,0.6527912140708956
-0.0007624999999999993,2.205422043597252,0.6527912140708956
-0.0007500000000000007,2.205422043597252,0.6527912140708956
-0.0007374999999999951,2.205760426047807,0.6527912140708956
-0.0007249999999999965,2.206098808498362,0.6531280318047119
-0.0007124999999999979,2.206775573399473,0.6527912140708956
-0.0006999999999999992,2.207113955850028,0.6527912140708956
-0.0006875000000000006,2.208467485652249,0.6531280318047118
-0.000674999999999995,2.20846748565225,0.6527912140708956
-0.0006624999999999964,2.20846748565225,0.6531280318047119
-0.0006499999999999978,2.20914425055336,0.6531280318047119
-0.0006374999999999992,2.209482633003915,0.6527912140708956
-0.0006250000000000006,2.209821015454471,0.6531280318047118
-0.000612499999999995,2.209482633003915,0.6531280318047119
-0.0005999999999999964,2.211174545256692,0.6527912140708956
-0.0005874999999999977,2.210836162806137,0.6531280318047119
-0.0005749999999999991,2.211512927707247,0.6531280318047119
-0.0005625000000000005,2.211174545256692,0.6527912140708957
-0.0005499999999999949,2.211174545256692,0.6527912140708956
-0.0005374999999999963,2.211851310157803,0.6531280318047119
-0.0005249999999999977,2.212189692608358,0.6527912140708956
-0.0005124999999999991,2.212866457509469,0.6527912140708956
-0.0005000000000000004,2.213204839960024,0.6531280318047118
-0.0004874999999999949,2.21421998731169,0.6531280318047119
-0.0004749999999999963,2.213881604861135,0.6527912140708956
-0.0004624999999999976,2.21421998731169,0.6531280318047119
-0.000449999999999999,2.2148967522128,0.6531280318047119
-0.0004375000000000004,2.215573517113911,0.6531280318047119
-0.0004249999999999948,2.215911899564467,0.6531280318047119
-0.0004124999999999962,2.216250282015022,0.6531280318047119
-0.0003999999999999976,2.216588664465577,0.6531280318047119
-0.000387499999999999,2.216927046916132,0.6531280318047119
-0.0003750000000000003,2.217942194267798,0.6531280318047119
-0.0003624999999999948,2.218280576718354,0.6531280318047119
-0.0003499999999999961,2.218280576718354,0.6531280318047119
-0.0003374999999999975,2.218618959168909,0.6534648495385282
-0.0003249999999999989,2.218618959168909,0.6531280318047119
-0.0003125000000000003,2.218957341619464,0.6531280318047119
-0.0002999999999999947,2.21929572407002,0.6534648495385282
-0.0002874999999999961,2.220310871421686,0.6531280318047119
-0.0002749999999999975,2.220310871421686,0.6534648495385282
-0.0002624999999999988,2.220649253872241,0.6531280318047119
-0.0002500000000000002,2.220987636322796,0.6531280318047119
-0.0002374999999999947,2.221664401223907,0.6534648495385282
-0.000224999999999996,2.222341166125017,0.6531280318047119
-0.0002124999999999974,2.222679548575573,0.6531280318047119
-0.0001999999999999988,2.223694695927239,0.6534648495385282
-0.0001875000000000002,2.223356313476684,0.6534648495385282
-0.0001749999999999946,2.224371460828349,0.6531280318047119
-0.000162499999999996,2.224709843278905,0.6534648495385282
-0.0001499999999999974,2.225386608180016,0.6531280318047119
-0.0001374999999999987,2.225724990630571,0.6534648495385282
-0.0001250000000000001,2.225724990630571,0.6534648495385282
-0.0001124999999999945,2.226063373081126,0.6534648495385282
-9.999999999999593e-05,2.225724990630571,0.6534648495385282
-8.74999999999973e-05,2.226401755531681,0.6534648495385282
-7.499999999999868e-05,2.226401755531681,0.6534648495385282
-6.250000000000006e-05,2.228093667784458,0.6534648495385282
-4.999999999999449e-05,2.227755285333903,0.6534648495385282
-3.749999999999587e-05,2.228432050235013,0.6534648495385282
-2.499999999999725e-05,2.228770432685569,0.6534648495385282
-1.249999999999862e-05,0.9730331586747852,0.01384797302122046
0,-0.006584035682859148,-0.5136085981352323
1.250000000000556e-05,-0.004553740979527243,-0.512261327199967
2.500000000000419e-05,-0.00353859362786129,-0.5112508739985178
3.750000000000281e-05,-0.002861828726750655,-0.5102404207970686
5.000000000000143e-05,-0.002523446276195337,-0.5099036030632522
6.250000000000006e-05,-0.00218506382564002,-0.5095667853294359
7.500000000000562e-05,-0.002523446276195337,-0.508893149861803
8.750000000000424e-05,-0.00218506382564002,-0.5082195143941703
0.0001000000000000029,-0.002523446276195337,-0.5075458789265375
0.0001125000000000015,-0.002523446276195337,-0.5072090611927211
0.0001250000000000001,-0.002523446276195337,-0.5068722434589048
0.0001375000000000057,-0.002523446276195183,-0.5068722434589041
0.0001500000000000043,-0.00218506382564002,-0.5055249725236393
0.0001625000000000029,-0.00218506382564002,-0.5055249725236393
0.0001750000000000015,-0.002523446276195337,-0.5048513370560066
0.0001875000000000002,-0.00218506382564002,-0.5048513370560066
0.0002000000000000057,-0.002185063825640174,-0.5045145193221899
0.0002125000000000044,-0.002523446276195337,-0.5041777015883737
0.000225000000000003,-0.00218506382564002,-0.5048513370560066
0.0002375000000000016,-0.00218506382564002,-0.5031672483869245
0.0002500000000000002,-0.00218506382564002,-0.5031672483869245
0.0002625000000000058,-0.00218506382564002,-0.5024936129192917
0.0002750000000000044,-0.00218506382564002,-0.5021567951854755
0.000287500000000003,-0.00218506382564002,-0.501819977451659
0.0003000000000000017,-0.002523446276195337,-0.5011463419840263
0.0003125000000000003,-0.00218506382564002,-0.5004727065163936
0.0003250000000000058,-0.002185063825640174,-0.5001358887825771
0.0003375000000000045,-0.002523446276195337,-0.5001358887825771
0.0003500000000000031,-0.002523446276195337,-0.499125435581128
0.0003625000000000017,-0.002523446276195337,-0.499125435581128
0.0003750000000000003,-0.002523446276195337,-0.4977781646458625
0.0003875000000000059,-0.002523446276195337,-0.4977781646458625
0.0004000000000000045,-0.002523446276195337,-0.4977781646458625
0.0004125000000000031,-0.002523446276195337,-0.4974413469120462
0.0004250000000000018,-0.002523446276195337,-0.4974413469120462
0.0004375000000000004,-0.00218506382564002,-0.4971045291782297
0.000450000000000006,-0.002523446276195337,-0.4971045291782291
0.0004625000000000046,-0.002523446276195337,-0.4957572582429642
0.0004750000000000032,-0.002523446276195337,-0.4954204405091479
0.0004875000000000018,-0.00218506382564002,-0.4950836227753314
0.0005000000000000004,-0.002523446276195337,-0.4947468050415151
0.000512500000000006,-0.002523446276195183,-0.4944099873076982
0.0005250000000000046,-0.00218506382564002,-0.4933995341062495
0.0005375000000000033,-0.00218506382564002,-0.4927258986386168
0.0005500000000000019,-0.002523446276195337,-0.4923890809048004
0.0005625000000000005,-0.002523446276195337,-0.492052263170984
0.0005750000000000061,-0.002523446276195337,-0.4913786277033512
0.0005875000000000047,-0.002523446276195337,-0.4913786277033512
0.0006000000000000033,-0.00218506382564002,-0.4903681745019021
0.0006125000000000019,-0.002523446276195337,-0.4900313567680857
0.0006250000000000006,-0.00218506382564002,-0.4896945390342693
0.0006375000000000061,-0.002523446276195183,-0.489357721300453
0.0006500000000000047,-0.00218506382564002,-0.489357721300453
0.0006625000000000034,-0.002523446276195337,-0.489357721300453
0.000675000000000002,-0.00218506382564002,-0.489357721300453
0.0006875000000000006,-0.00218506382564002,-0.4880104503651875
0.0007000000000000062,-0.002185063825640174,-0.4876736326313709
0.0007125000000000048,-0.002523446276195337,-0.4873368148975547
0.0007250000000000034,-0.002523446276195337,-0.4869999971637383
0.000737500000000002,-0.002523446276195337,-0.4863263616961055
0.0007500000000000007,-0.002523446276195337,-0.4859895439622892
0.0007625000000000062,-0.002185063825640174,-0.4856527262284723
0.0007750000000000049,-0.002523446276195337,-0.4846422730270236
0.0007875000000000035,-0.002523446276195337,-0.4839686375593908
0.0008000000000000021,-0.002523446276195337,-0.4839686375593908
0.0008125000000000007,-0.002523446276195337,-0.4832950020917581
0.0008249999999999993,-0.002185063825640174,-0.4829581843579419
0.0008375000000000049,-0.00218506382564002,-0.4829581843579417
0.0008500000000000035,-0.00218506382564002,-0.4819477311564925
0.0008625000000000022,-0.002523446276195337,-0.4816109134226762
0.0008750000000000008,-0.00218506382564002,-0.4812740956888599
0.0008874999999999994,-0.002523446276195183,-0.481610913422676
0.000900000000000005,-0.002523446276195337,-0.4812740956888599
0.0009125000000000036,-0.00218506382564002,-0.4809372779550434
0.0009250000000000022,-0.002523446276195337,-0.4802636424874107
0.0009375000000000008,-0.002523446276195337,-0.4795900070197779
0.0009499999999999995,-0.002185063825640174,-0.4792531892859617
0.000962500000000005,-0.002523446276195337,-0.4789163715521451
0.0009750000000000036,-0.002523446276195337,-0.4782427360845123
0.0009875000000000023,-0.00218506382564002,-0.4782427360845123
0.001000000000000001,-0.002523446276195337,-0.4765586474154305
0.0010125,-0.002523446276195337,-0.4768954651492467
0.001025000000000005,-0.002523446276195337,-0.4762218296816141
0.001037500000000004,-0.00218506382564002,-0.4758850119477977
0.001050000000000002,-0.002523446276195337,-0.4758850119477977
0.001062500000000001,-0.002523446276195337,-0.4745377410125322
0.001075,-0.002523446276195337,-0.4745377410125322
0.001087500000000005,-0.002523446276195337,-0.4742009232787158
0.001100000000000004,-0.002523446276195337,-0.4745377410125322
0.001112500000000002,-0.00218506382564002,-0.4735272878110831
0.001125000000000001,-0.002523446276195337,-0.4735272878110831
0.0011375,-0.002523446276195337,-0.4728536523434506
0.001150000000000005,-0.002523446276195337,-0.472516834609634
0.001162500000000004,-0.002523446276195337,-0.4718431991420012
0.001175000000000002,-0.002523446276195337,-0.4711695636743684
0.001187500000000001,-0.002523446276195337,-0.4711695636743684
0.0012,-0.002523446276195337,-0.4701591104729196
0.001212500000000005,-0.002523446276195337,-0.4701591104729192
0.001225000000000004,-0.002523446276195337,-0.4691486572714701
0.001237500000000002,-0.002523446276195337,-0.4688118395376538
0.001250000000000001,-0.002523446276195337,-0.4684750218038373
0.0012625,-0.002523446276195337,-0.4678013863362049
0.001275000000000005,-0.002523446276195337,-0.468138204070021
0.001287500000000004,-0.002523446276195337,-0.4671277508685718
0.001300000000000003,-0.00218506382564002,-0.466454115400939
0.001312500000000001,-0.00218506382564002,-0.4667909331347554
0.001325,-0.002523446276195183,-0.466117297667123
0.001337500000000005,-0.00218506382564002,-0.4657804799333062
0.001350000000000004,-0.002523446276195337,-0.4657804799333062
0.001362500000000003,-0.00218506382564002,-0.4651068444656736
0.001375000000000001,-0.00218506382564002,-0.4647700267318571
0.0013875,-0.00218506382564002,-0.464433208998041
0.001400000000000005,-0.002523446276195337,-0.463759573530408
0.001412500000000004,-0.00218506382564002,-0.4634227557965916
0.001425000000000003,-0.002523446276195337,-0.4630859380627753
0.001437500000000001,-0.00218506382564002,-0.4624123025951425
0.00145,-0.00218506382564002,-0.4614018493936937
0.001462500000000005,-0.00218506382564002,-0.4614018493936933
0.001475000000000004,-0.00218506382564002,-0.4607282139260606
0.001487500000000003,-0.00218506382564002,-0.4603913961922442
0.001500000000000001,-0.00218506382564002,-0.4597177607246114
0.0015125,-0.00218506382564002,-0.4587073075231623
0.001525000000000006,-0.00218506382564002,-0.4583704897893459
0.001537500000000004,-0.002523446276195337,-0.4583704897893459
0.001550000000000003,-0.002523446276195337,-0.4583704897893459
0.001562500000000001,-0.002523446276195337,-0.4580336720555295
0.001575,-0.00218506382564002,-0.4576968543217131
0.001587500000000006,-0.002523446276195337,-0.4573600365878968
0.001600000000000004,-0.00218506382564002,-0.4570232188540804
0.001612500000000003,-0.002523446276195337,-0.456686401120264
0.001625000000000001,-0.00218506382564002,-0.4553391301849984
0.0016375,-0.00218506382564002,-0.4553391301849984
0.001650000000000006,-0.002523446276195183,-0.4546654947173657
0.001662500000000004,-0.00218506382564002,-0.4546654947173657
0.001675000000000003,-0.00218506382564002,-0.4543286769835493
0.001687500000000001,-0.002523446276195337,-0.4536550415159166
0.0017,-0.002523446276195337,-0.4533182237821002
0.001712500000000006,-0.002523446276195183,-0.4529814060482836
0.001725000000000004,-0.00218506382564002,-0.4526445883144675
0.001737500000000003,-0.00218506382564002,-0.452307770580651
0.001750000000000002,-0.00218506382564002,-0.4519709528468347
0.0017625,-0.002523446276195337,-0.4516341351130183
0.001775000000000006,-0.00218506382564002,-0.4512973173792015
0.001787500000000004,-0.00218506382564002,-0.4502868641777527
0.001800000000000003,-0.00218506382564002,-0.4502868641777527
0.001812500000000002,-0.00218506382564002,-0.4502868641777527
0.001825,-0.00218506382564002,-0.4496132287101199
0.001837500000000006,-0.002185063825640174,-0.449276410976303
0.001850000000000004,-0.002523446276195337,-0.4479291400410381
0.001862500000000003,-0.00218506382564002,-0.4482659577748545
0.001875000000000002,-0.002523446276195337,-0.4472555045734053
0.0018875,-0.00218506382564002,-0.446918686839589
0.001900000000000006,-0.002523446276195183,-0.4465818691057722
0.001912500000000004,-0.00218506382564002,-0.4459082336381398
0.001925000000000003,-0.002523446276195337,-0.4455714159043234
0.001937500000000002,-0.002523446276195337,-0.4448977804366906
0.00195,-0.002523446276195337,-0.4445609627028743
0.001962500000000006,-0.002523446276195183,-0.4438873272352415
0.001975000000000005,-0.00218506382564002,-0.4438873272352415
0.001987500000000003,-0.00218506382564002,-0.4438873272352415
0.002000000000000002,-0.002523446276195337,-0.4432136917676088
0.0020125,-0.002523446276195337,-0.442540056299976
0.002025000000000006,-0.002523446276195337,-0.4422032385661594
0.002037500000000005,-0.002523446276195337,-0.4418664208323432
0.002050000000000003,-0.00218506382564002,-0.4411927853647105
0.002062500000000002,-0.00218506382564002,-0.4408559676308941
0.002075,-0.00218506382564002,-0.4398455144294449
0.002087500000000006,-0.002523446276195337,-0.4395086966956284
0.002100000000000005,-0.002523446276195337,-0.4391718789618121
0.002112500000000003,-0.002523446276195337,-0.4388350612279958
0.002125000000000002,-0.00218506382564002,-0.438161425760363
0.002137500000000001,-0.00218506382564002,-0.4378246080265466
0.002150000000000006,-0.002523446276195337,-0.4371509725589138
0.002162500000000005,-0.002523446276195337,-0.4368141548250975
0.002175000000000003,-0.00218506382564002,-0.4368141548250975
0.002187500000000002,-0.00218506382564002,-0.4371509725589139
0.002200000000000001,-0.00218506382564002,-0.4368141548250975
0.002212500000000006,-0.002185063825640174,-0.4361405193574646
0.002225000000000005,-0.002523446276195337,-0.4358037016236484
0.002237500000000003,-0.00218506382564002,-0.4351300661560156
0.002250000000000002,-0.00218506382564002,-0.4347932484221992
0.002262500000000001,-0.002523446276195337,-0.4341196129545664
0.002275000000000006,-0.00218506382564002,-0.4334459774869335
0.002287500000000005,-0.00218506382564002,-0.4331091597531173
0.002300000000000003,-0.002523446276195337,-0.4324355242854845
0.002312500000000002,-0.002523446276195337,-0.4324355242854845
0.002325000000000001,-0.00218506382564002,-0.4320987065516682
0.002337500000000006,-0.002523446276195183,-0.4314250710840354
0.002350000000000005,-0.00218506382564002,-0.4314250710840354
0.002362500000000003,-0.00218506382564002,-0.4304146178825862
0.002375000000000002,-0.00218506382564002,-0.4304146178825862
0.002387500000000001,-0.002523446276195337,-0.4294041646811371
0.002399999999999999,-0.002185063825640174,-0.4297409824149533
0.002412500000000005,-0.001846681375084702,-0.4294041646811371
0.002425000000000004,-0.00218506382564002,-0.4290673469473208
0.002437500000000002,-0.00218506382564002,-0.428393711479688
0.002450000000000001,-0.00218506382564002,-0.4273832582782388
0.002462499999999999,-0.00218506382564002,-0.4273832582782388
0.002475000000000005,-0.00218506382564002,-0.4263728050767897
0.002487500000000004,-0.00218506382564002,-0.4263728050767897
0.002500000000000002,-0.00218506382564002,-0.4256991696091569
0.002512500000000001,-0.00218506382564002,-0.4253623518753405
0.002524999999999999,-0.00218506382564002,-0.4246887164077082
0.002537500000000005,-0.00218506382564002,-0.4243518986738914
0.002550000000000004,-0.00218506382564002,-0.4236782632062586
0.002562500000000002,-0.00218506382564002,-0.4230046277386258
0.002575000000000001,-0.00218506382564002,-0.4230046277386258
0.0025875,-0.00218506382564002,-0.4223309922709934
0.002600000000000005,-0.002523446276195337,-0.4223309922709931
0.002612500000000004,-0.002523446276195337,-0.4209837213357276
0.002625000000000002,-0.00218506382564002,-0.421320539069544
0.002637500000000001,-0.00218506382564002,-0.4209837213357276
0.00265,-0.00218506382564002,-0.4206469036019114
0.002662500000000005,-0.00218506382564002,-0.4206469036019112
0.002675000000000004,-0.001846681375084702,-0.4203100858680949
0.002687500000000002,-0.00218506382564002,-0.4199732681342784
0.002700000000000001,-0.001846681375084702,-0.4186259971990129
0.0027125,-0.002185063825639866,-0.4182891794651967
0.002725000000000005,-0.00218506382564002,-0.4179523617313801
0.002737500000000004,-0.00218506382564002,-0.4176155439975638
0.002750000000000002,-0.00218506382564002,-0.4172787262637475
0.002762500000000001,-0.00218506382564002,-0.4162682730622982
0.002775,-0.00218506382564002,-0.4162682730622982
